<svg id="mermaid-1588859968960" width="3386.0546875" xmlns="http://www.w3.org/2000/svg" height="411" viewBox="0 0 3386.0546875 411"><style>#mermaid-1588859968960 .label{font-family:'trebuchet ms', verdana, arial;font-family:var(--mermaid-font-family);color:#333}#mermaid-1588859968960 .label text{fill:#333}#mermaid-1588859968960 .node rect,#mermaid-1588859968960 .node circle,#mermaid-1588859968960 .node ellipse,#mermaid-1588859968960 .node polygon,#mermaid-1588859968960 .node path{fill:#ECECFF;stroke:#9370db;stroke-width:1px}#mermaid-1588859968960 .node .label{text-align:center}#mermaid-1588859968960 .node.clickable{cursor:pointer}#mermaid-1588859968960 .arrowheadPath{fill:#333}#mermaid-1588859968960 .edgePath .path{stroke:#333;stroke-width:1.5px}#mermaid-1588859968960 .edgeLabel{background-color:#e8e8e8;text-align:center}#mermaid-1588859968960 .cluster rect{fill:#ffffde;stroke:#aa3;stroke-width:1px}#mermaid-1588859968960 .cluster text{fill:#333}#mermaid-1588859968960 div.mermaidTooltip{position:absolute;text-align:center;max-width:200px;padding:2px;font-family:'trebuchet ms', verdana, arial;font-family:var(--mermaid-font-family);font-size:12px;background:#ffffde;border:1px solid #aa3;border-radius:2px;pointer-events:none;z-index:100}#mermaid-1588859968960 .actor{stroke:#ccf;fill:#ECECFF}#mermaid-1588859968960 text.actor{fill:#000;stroke:none}#mermaid-1588859968960 .actor-line{stroke:grey}#mermaid-1588859968960 .messageLine0{stroke-width:1.5;stroke-dasharray:'2 2';stroke:#333}#mermaid-1588859968960 .messageLine1{stroke-width:1.5;stroke-dasharray:'2 2';stroke:#333}#mermaid-1588859968960 #arrowhead{fill:#333}#mermaid-1588859968960 .sequenceNumber{fill:#fff}#mermaid-1588859968960 #sequencenumber{fill:#333}#mermaid-1588859968960 #crosshead path{fill:#333 !important;stroke:#333 !important}#mermaid-1588859968960 .messageText{fill:#333;stroke:none}#mermaid-1588859968960 .labelBox{stroke:#ccf;fill:#ECECFF}#mermaid-1588859968960 .labelText{fill:#000;stroke:none}#mermaid-1588859968960 .loopText{fill:#000;stroke:none}#mermaid-1588859968960 .loopLine{stroke-width:2;stroke-dasharray:'2 2';stroke:#ccf}#mermaid-1588859968960 .note{stroke:#aa3;fill:#fff5ad}#mermaid-1588859968960 .noteText{fill:black;stroke:none;font-family:'trebuchet ms', verdana, arial;font-family:var(--mermaid-font-family);font-size:14px}#mermaid-1588859968960 .activation0{fill:#f4f4f4;stroke:#666}#mermaid-1588859968960 .activation1{fill:#f4f4f4;stroke:#666}#mermaid-1588859968960 .activation2{fill:#f4f4f4;stroke:#666}#mermaid-1588859968960 .mermaid-main-font{font-family:"trebuchet ms", verdana, arial;font-family:var(--mermaid-font-family)}#mermaid-1588859968960 .section{stroke:none;opacity:0.2}#mermaid-1588859968960 .section0{fill:rgba(102,102,255,0.49)}#mermaid-1588859968960 .section2{fill:#fff400}#mermaid-1588859968960 .section1,#mermaid-1588859968960 .section3{fill:#fff;opacity:0.2}#mermaid-1588859968960 .sectionTitle0{fill:#333}#mermaid-1588859968960 .sectionTitle1{fill:#333}#mermaid-1588859968960 .sectionTitle2{fill:#333}#mermaid-1588859968960 .sectionTitle3{fill:#333}#mermaid-1588859968960 .sectionTitle{text-anchor:start;font-size:11px;text-height:14px;font-family:'trebuchet ms', verdana, arial;font-family:var(--mermaid-font-family)}#mermaid-1588859968960 .grid .tick{stroke:#d3d3d3;opacity:0.8;shape-rendering:crispEdges}#mermaid-1588859968960 .grid .tick text{font-family:'trebuchet ms', verdana, arial;font-family:var(--mermaid-font-family)}#mermaid-1588859968960 .grid path{stroke-width:0}#mermaid-1588859968960 .today{fill:none;stroke:red;stroke-width:2px}#mermaid-1588859968960 .task{stroke-width:2}#mermaid-1588859968960 .taskText{text-anchor:middle;font-family:'trebuchet ms', verdana, arial;font-family:var(--mermaid-font-family)}#mermaid-1588859968960 .taskText:not([font-size]){font-size:11px}#mermaid-1588859968960 .taskTextOutsideRight{fill:#000;text-anchor:start;font-size:11px;font-family:'trebuchet ms', verdana, arial;font-family:var(--mermaid-font-family)}#mermaid-1588859968960 .taskTextOutsideLeft{fill:#000;text-anchor:end;font-size:11px}#mermaid-1588859968960 .task.clickable{cursor:pointer}#mermaid-1588859968960 .taskText.clickable{cursor:pointer;fill:#003163 !important;font-weight:bold}#mermaid-1588859968960 .taskTextOutsideLeft.clickable{cursor:pointer;fill:#003163 !important;font-weight:bold}#mermaid-1588859968960 .taskTextOutsideRight.clickable{cursor:pointer;fill:#003163 !important;font-weight:bold}#mermaid-1588859968960 .taskText0,#mermaid-1588859968960 .taskText1,#mermaid-1588859968960 .taskText2,#mermaid-1588859968960 .taskText3{fill:#fff}#mermaid-1588859968960 .task0,#mermaid-1588859968960 .task1,#mermaid-1588859968960 .task2,#mermaid-1588859968960 .task3{fill:#8a90dd;stroke:#534fbc}#mermaid-1588859968960 .taskTextOutside0,#mermaid-1588859968960 .taskTextOutside2{fill:#000}#mermaid-1588859968960 .taskTextOutside1,#mermaid-1588859968960 .taskTextOutside3{fill:#000}#mermaid-1588859968960 .active0,#mermaid-1588859968960 .active1,#mermaid-1588859968960 .active2,#mermaid-1588859968960 .active3{fill:#bfc7ff;stroke:#534fbc}#mermaid-1588859968960 .activeText0,#mermaid-1588859968960 .activeText1,#mermaid-1588859968960 .activeText2,#mermaid-1588859968960 .activeText3{fill:#000 !important}#mermaid-1588859968960 .done0,#mermaid-1588859968960 .done1,#mermaid-1588859968960 .done2,#mermaid-1588859968960 .done3{stroke:grey;fill:#d3d3d3;stroke-width:2}#mermaid-1588859968960 .doneText0,#mermaid-1588859968960 .doneText1,#mermaid-1588859968960 .doneText2,#mermaid-1588859968960 .doneText3{fill:#000 !important}#mermaid-1588859968960 .crit0,#mermaid-1588859968960 .crit1,#mermaid-1588859968960 .crit2,#mermaid-1588859968960 .crit3{stroke:#f88;fill:red;stroke-width:2}#mermaid-1588859968960 .activeCrit0,#mermaid-1588859968960 .activeCrit1,#mermaid-1588859968960 .activeCrit2,#mermaid-1588859968960 .activeCrit3{stroke:#f88;fill:#bfc7ff;stroke-width:2}#mermaid-1588859968960 .doneCrit0,#mermaid-1588859968960 .doneCrit1,#mermaid-1588859968960 .doneCrit2,#mermaid-1588859968960 .doneCrit3{stroke:#f88;fill:#d3d3d3;stroke-width:2;cursor:pointer;shape-rendering:crispEdges}#mermaid-1588859968960 .milestone{transform:rotate(45deg) scale(0.8, 0.8)}#mermaid-1588859968960 .milestoneText{font-style:italic}#mermaid-1588859968960 .doneCritText0,#mermaid-1588859968960 .doneCritText1,#mermaid-1588859968960 .doneCritText2,#mermaid-1588859968960 .doneCritText3{fill:#000 !important}#mermaid-1588859968960 .activeCritText0,#mermaid-1588859968960 .activeCritText1,#mermaid-1588859968960 .activeCritText2,#mermaid-1588859968960 .activeCritText3{fill:#000 !important}#mermaid-1588859968960 .titleText{text-anchor:middle;font-size:18px;fill:#000;font-family:'trebuchet ms', verdana, arial;font-family:var(--mermaid-font-family)}#mermaid-1588859968960 g.classGroup text{fill:#9370db;stroke:none;font-family:'trebuchet ms', verdana, arial;font-family:var(--mermaid-font-family);font-size:10px}#mermaid-1588859968960 g.classGroup text .title{font-weight:bolder}#mermaid-1588859968960 g.clickable{cursor:pointer}#mermaid-1588859968960 g.classGroup rect{fill:#ECECFF;stroke:#9370db}#mermaid-1588859968960 g.classGroup line{stroke:#9370db;stroke-width:1}#mermaid-1588859968960 .classLabel .box{stroke:none;stroke-width:0;fill:#ECECFF;opacity:0.5}#mermaid-1588859968960 .classLabel .label{fill:#9370db;font-size:10px}#mermaid-1588859968960 .relation{stroke:#9370db;stroke-width:1;fill:none}#mermaid-1588859968960 .dashed-line{stroke-dasharray:3}#mermaid-1588859968960 #compositionStart{fill:#9370db;stroke:#9370db;stroke-width:1}#mermaid-1588859968960 #compositionEnd{fill:#9370db;stroke:#9370db;stroke-width:1}#mermaid-1588859968960 #aggregationStart{fill:#ECECFF;stroke:#9370db;stroke-width:1}#mermaid-1588859968960 #aggregationEnd{fill:#ECECFF;stroke:#9370db;stroke-width:1}#mermaid-1588859968960 #dependencyStart{fill:#9370db;stroke:#9370db;stroke-width:1}#mermaid-1588859968960 #dependencyEnd{fill:#9370db;stroke:#9370db;stroke-width:1}#mermaid-1588859968960 #extensionStart{fill:#9370db;stroke:#9370db;stroke-width:1}#mermaid-1588859968960 #extensionEnd{fill:#9370db;stroke:#9370db;stroke-width:1}#mermaid-1588859968960 .commit-id,#mermaid-1588859968960 .commit-msg,#mermaid-1588859968960 .branch-label{fill:lightgrey;color:lightgrey;font-family:'trebuchet ms', verdana, arial;font-family:var(--mermaid-font-family)}#mermaid-1588859968960 .pieTitleText{text-anchor:middle;font-size:25px;fill:#000;font-family:'trebuchet ms', verdana, arial;font-family:var(--mermaid-font-family)}#mermaid-1588859968960 .slice{font-family:'trebuchet ms', verdana, arial;font-family:var(--mermaid-font-family)}#mermaid-1588859968960 g.stateGroup text{fill:#9370db;stroke:none;font-size:10px;font-family:'trebuchet ms', verdana, arial;font-family:var(--mermaid-font-family)}#mermaid-1588859968960 g.stateGroup text{fill:#9370db;stroke:none;font-size:10px}#mermaid-1588859968960 g.stateGroup .state-title{font-weight:bolder;fill:#000}#mermaid-1588859968960 g.stateGroup rect{fill:#ECECFF;stroke:#9370db}#mermaid-1588859968960 g.stateGroup line{stroke:#9370db;stroke-width:1}#mermaid-1588859968960 .transition{stroke:#9370db;stroke-width:1;fill:none}#mermaid-1588859968960 .stateGroup .composit{fill:white;border-bottom:1px}#mermaid-1588859968960 .stateGroup .alt-composit{fill:#e0e0e0;border-bottom:1px}#mermaid-1588859968960 .state-note{stroke:#aa3;fill:#fff5ad}#mermaid-1588859968960 .state-note text{fill:black;stroke:none;font-size:10px}#mermaid-1588859968960 .stateLabel .box{stroke:none;stroke-width:0;fill:#ECECFF;opacity:0.5}#mermaid-1588859968960 .stateLabel text{fill:#000;font-size:10px;font-weight:bold;font-family:'trebuchet ms', verdana, arial;font-family:var(--mermaid-font-family)}:root{--mermaid-font-family: '"trebuchet ms", verdana, arial';--mermaid-font-family: "Comic Sans MS", "Comic Sans", cursive}

:root { --mermaid-font-family: "trebuchet ms", verdana, arial;}</style><style>#mermaid-1588859968960 {
    color: rgb(0, 0, 0);
    font: 16px "trebuchet ms", verdana, arial;
  }</style><g transform="translate(0, 0)"><g class="output"><g class="clusters"></g><g class="edgePaths"><g class="edgePath" style="opacity: 1;"><path class="path" d="M1806.26171875,29.526387678465298L407.328125,72L407.328125,97" marker-end="url(#arrowhead1175)" style="fill:none"></path><defs><marker id="arrowhead1175" viewBox="0 0 10 10" refX="9" refY="5" markerUnits="strokeWidth" markerWidth="8" markerHeight="6" orient="auto"><path d="M 0 0 L 10 5 L 0 10 z" class="arrowheadPath" style="stroke-width: 1; stroke-dasharray: 1, 0;"></path></marker></defs></g><g class="edgePath" style="opacity: 1;"><path class="path" d="M1806.26171875,32.83199856939487L1315.984375,72L1315.984375,97" marker-end="url(#arrowhead1176)" style="fill:none"></path><defs><marker id="arrowhead1176" viewBox="0 0 10 10" refX="9" refY="5" markerUnits="strokeWidth" markerWidth="8" markerHeight="6" orient="auto"><path d="M 0 0 L 10 5 L 0 10 z" class="arrowheadPath" style="stroke-width: 1; stroke-dasharray: 1, 0;"></path></marker></defs></g><g class="edgePath" style="opacity: 1;"><path class="path" d="M1939.74609375,32.929472210915684L2420.0234375,72L2420.0234375,97" marker-end="url(#arrowhead1177)" style="fill:none"></path><defs><marker id="arrowhead1177" viewBox="0 0 10 10" refX="9" refY="5" markerUnits="strokeWidth" markerWidth="8" markerHeight="6" orient="auto"><path d="M 0 0 L 10 5 L 0 10 z" class="arrowheadPath" style="stroke-width: 1; stroke-dasharray: 1, 0;"></path></marker></defs></g><g class="edgePath" style="opacity: 1;"><path class="path" d="M1939.74609375,29.70460680640569L3220.1953125,72L3220.1953125,97" marker-end="url(#arrowhead1178)" style="fill:none"></path><defs><marker id="arrowhead1178" viewBox="0 0 10 10" refX="9" refY="5" markerUnits="strokeWidth" markerWidth="8" markerHeight="6" orient="auto"><path d="M 0 0 L 10 5 L 0 10 z" class="arrowheadPath" style="stroke-width: 1; stroke-dasharray: 1, 0;"></path></marker></defs></g><g class="edgePath" style="opacity: 1;"><path class="path" d="M353.5234375,130.11641674997225L231.48828125,161L231.48828125,186" marker-end="url(#arrowhead1179)" style="fill:none"></path><defs><marker id="arrowhead1179" viewBox="0 0 10 10" refX="9" refY="5" markerUnits="strokeWidth" markerWidth="8" markerHeight="6" orient="auto"><path d="M 0 0 L 10 5 L 0 10 z" class="arrowheadPath" style="stroke-width: 1; stroke-dasharray: 1, 0;"></path></marker></defs></g><g class="edgePath" style="opacity: 1;"><path class="path" d="M461.1328125,128.89194953803855L600.54296875,161L600.54296875,186" marker-end="url(#arrowhead1180)" style="fill:none"></path><defs><marker id="arrowhead1180" viewBox="0 0 10 10" refX="9" refY="5" markerUnits="strokeWidth" markerWidth="8" markerHeight="6" orient="auto"><path d="M 0 0 L 10 5 L 0 10 z" class="arrowheadPath" style="stroke-width: 1; stroke-dasharray: 1, 0;"></path></marker></defs></g><g class="edgePath" style="opacity: 1;"><path class="path" d="M461.1328125,123.46130607609312L751.2734375,161L929.9296875,193.57549857549859" marker-end="url(#arrowhead1181)" style="fill:none"></path><defs><marker id="arrowhead1181" viewBox="0 0 10 10" refX="9" refY="5" markerUnits="strokeWidth" markerWidth="8" markerHeight="6" orient="auto"><path d="M 0 0 L 10 5 L 0 10 z" class="arrowheadPath" style="stroke-width: 1; stroke-dasharray: 1, 0;"></path></marker></defs></g><g class="edgePath" style="opacity: 1;"><path class="path" d="M1311.6023525280898,136L1305.984375,161L1060.7265625,196.13199124836535" marker-end="url(#arrowhead1182)" style="fill:none"></path><defs><marker id="arrowhead1182" viewBox="0 0 10 10" refX="9" refY="5" markerUnits="strokeWidth" markerWidth="8" markerHeight="6" orient="auto"><path d="M 0 0 L 10 5 L 0 10 z" class="arrowheadPath" style="stroke-width: 1; stroke-dasharray: 1, 0;"></path></marker></defs></g><g class="edgePath" style="opacity: 1;"><path class="path" d="M1320.3663974719102,136L1325.984375,161L1325.984375,186" marker-end="url(#arrowhead1183)" style="fill:none"></path><defs><marker id="arrowhead1183" viewBox="0 0 10 10" refX="9" refY="5" markerUnits="strokeWidth" markerWidth="8" markerHeight="6" orient="auto"><path d="M 0 0 L 10 5 L 0 10 z" class="arrowheadPath" style="stroke-width: 1; stroke-dasharray: 1, 0;"></path></marker></defs></g><g class="edgePath" style="opacity: 1;"><path class="path" d="M1346.9921875,119.47493662570848L1779.80859375,161L1779.80859375,186" marker-end="url(#arrowhead1184)" style="fill:none"></path><defs><marker id="arrowhead1184" viewBox="0 0 10 10" refX="9" refY="5" markerUnits="strokeWidth" markerWidth="8" markerHeight="6" orient="auto"><path d="M 0 0 L 10 5 L 0 10 z" class="arrowheadPath" style="stroke-width: 1; stroke-dasharray: 1, 0;"></path></marker></defs></g><g class="edgePath" style="opacity: 1;"><path class="path" d="M2379.75,123.18086438629447L2151.76953125,161L2151.76953125,186" marker-end="url(#arrowhead1185)" style="fill:none"></path><defs><marker id="arrowhead1185" viewBox="0 0 10 10" refX="9" refY="5" markerUnits="strokeWidth" markerWidth="8" markerHeight="6" orient="auto"><path d="M 0 0 L 10 5 L 0 10 z" class="arrowheadPath" style="stroke-width: 1; stroke-dasharray: 1, 0;"></path></marker></defs></g><g class="edgePath" style="opacity: 1;"><path class="path" d="M2420.0234375,136L2420.0234375,161L2420.0234375,186" marker-end="url(#arrowhead1186)" style="fill:none"></path><defs><marker id="arrowhead1186" viewBox="0 0 10 10" refX="9" refY="5" markerUnits="strokeWidth" markerWidth="8" markerHeight="6" orient="auto"><path d="M 0 0 L 10 5 L 0 10 z" class="arrowheadPath" style="stroke-width: 1; stroke-dasharray: 1, 0;"></path></marker></defs></g><g class="edgePath" style="opacity: 1;"><path class="path" d="M2460.296875,122.43540583197495L2721.96875,161L2721.96875,186" marker-end="url(#arrowhead1187)" style="fill:none"></path><defs><marker id="arrowhead1187" viewBox="0 0 10 10" refX="9" refY="5" markerUnits="strokeWidth" markerWidth="8" markerHeight="6" orient="auto"><path d="M 0 0 L 10 5 L 0 10 z" class="arrowheadPath" style="stroke-width: 1; stroke-dasharray: 1, 0;"></path></marker></defs></g><g class="edgePath" style="opacity: 1;"><path class="path" d="M3220.1953125,136L3220.1953125,161L3220.1953125,186" marker-end="url(#arrowhead1188)" style="fill:none"></path><defs><marker id="arrowhead1188" viewBox="0 0 10 10" refX="9" refY="5" markerUnits="strokeWidth" markerWidth="8" markerHeight="6" orient="auto"><path d="M 0 0 L 10 5 L 0 10 z" class="arrowheadPath" style="stroke-width: 1; stroke-dasharray: 1, 0;"></path></marker></defs></g><g class="edgePath" style="opacity: 1;"><path class="path" d="M231.48828125,225L231.48828125,250L231.48828125,275" marker-end="url(#arrowhead1189)" style="fill:none"></path><defs><marker id="arrowhead1189" viewBox="0 0 10 10" refX="9" refY="5" markerUnits="strokeWidth" markerWidth="8" markerHeight="6" orient="auto"><path d="M 0 0 L 10 5 L 0 10 z" class="arrowheadPath" style="stroke-width: 1; stroke-dasharray: 1, 0;"></path></marker></defs></g><g class="edgePath" style="opacity: 1;"><path class="path" d="M600.54296875,225L600.54296875,250L600.54296875,275" marker-end="url(#arrowhead1190)" style="fill:none"></path><defs><marker id="arrowhead1190" viewBox="0 0 10 10" refX="9" refY="5" markerUnits="strokeWidth" markerWidth="8" markerHeight="6" orient="auto"><path d="M 0 0 L 10 5 L 0 10 z" class="arrowheadPath" style="stroke-width: 1; stroke-dasharray: 1, 0;"></path></marker></defs></g><g class="edgePath" style="opacity: 1;"><path class="path" d="M945.6691976825842,225L882.00390625,250L882.00390625,275" marker-end="url(#arrowhead1191)" style="fill:none"></path><defs><marker id="arrowhead1191" viewBox="0 0 10 10" refX="9" refY="5" markerUnits="strokeWidth" markerWidth="8" markerHeight="6" orient="auto"><path d="M 0 0 L 10 5 L 0 10 z" class="arrowheadPath" style="stroke-width: 1; stroke-dasharray: 1, 0;"></path></marker></defs></g><g class="edgePath" style="opacity: 1;"><path class="path" d="M1060.7265625,211.95636217101557L1446.08203125,250L1446.08203125,275" marker-end="url(#arrowhead1192)" style="fill:none"></path><defs><marker id="arrowhead1192" viewBox="0 0 10 10" refX="9" refY="5" markerUnits="strokeWidth" markerWidth="8" markerHeight="6" orient="auto"><path d="M 0 0 L 10 5 L 0 10 z" class="arrowheadPath" style="stroke-width: 1; stroke-dasharray: 1, 0;"></path></marker></defs></g><g class="edgePath" style="opacity: 1;"><path class="path" d="M1276.3254476825844,225L1212.66015625,250L1212.66015625,275" marker-end="url(#arrowhead1193)" style="fill:none"></path><defs><marker id="arrowhead1193" viewBox="0 0 10 10" refX="9" refY="5" markerUnits="strokeWidth" markerWidth="8" markerHeight="6" orient="auto"><path d="M 0 0 L 10 5 L 0 10 z" class="arrowheadPath" style="stroke-width: 1; stroke-dasharray: 1, 0;"></path></marker></defs></g><g class="edgePath" style="opacity: 1;"><path class="path" d="M1763.6139396067415,225L1742.8515625,250L1742.8515625,275" marker-end="url(#arrowhead1194)" style="fill:none"></path><defs><marker id="arrowhead1194" viewBox="0 0 10 10" refX="9" refY="5" markerUnits="strokeWidth" markerWidth="8" markerHeight="6" orient="auto"><path d="M 0 0 L 10 5 L 0 10 z" class="arrowheadPath" style="stroke-width: 1; stroke-dasharray: 1, 0;"></path></marker></defs></g><g class="edgePath" style="opacity: 1;"><path class="path" d="M1849.6419417134832,225L1939.171875,250L2019.175386235955,275" marker-end="url(#arrowhead1195)" style="fill:none"></path><defs><marker id="arrowhead1195" viewBox="0 0 10 10" refX="9" refY="5" markerUnits="strokeWidth" markerWidth="8" markerHeight="6" orient="auto"><path d="M 0 0 L 10 5 L 0 10 z" class="arrowheadPath" style="stroke-width: 1; stroke-dasharray: 1, 0;"></path></marker></defs></g><g class="edgePath" style="opacity: 1;"><path class="path" d="M2151.76953125,225L2151.76953125,250L2112.336156952247,275" marker-end="url(#arrowhead1196)" style="fill:none"></path><defs><marker id="arrowhead1196" viewBox="0 0 10 10" refX="9" refY="5" markerUnits="strokeWidth" markerWidth="8" markerHeight="6" orient="auto"><path d="M 0 0 L 10 5 L 0 10 z" class="arrowheadPath" style="stroke-width: 1; stroke-dasharray: 1, 0;"></path></marker></defs></g><g class="edgePath" style="opacity: 1;"><path class="path" d="M2420.0234375,225L2420.0234375,250L2420.0234375,275" marker-end="url(#arrowhead1197)" style="fill:none"></path><defs><marker id="arrowhead1197" viewBox="0 0 10 10" refX="9" refY="5" markerUnits="strokeWidth" markerWidth="8" markerHeight="6" orient="auto"><path d="M 0 0 L 10 5 L 0 10 z" class="arrowheadPath" style="stroke-width: 1; stroke-dasharray: 1, 0;"></path></marker></defs></g><g class="edgePath" style="opacity: 1;"><path class="path" d="M2721.96875,225L2721.96875,250L2721.96875,275" marker-end="url(#arrowhead1198)" style="fill:none"></path><defs><marker id="arrowhead1198" viewBox="0 0 10 10" refX="9" refY="5" markerUnits="strokeWidth" markerWidth="8" markerHeight="6" orient="auto"><path d="M 0 0 L 10 5 L 0 10 z" class="arrowheadPath" style="stroke-width: 1; stroke-dasharray: 1, 0;"></path></marker></defs></g><g class="edgePath" style="opacity: 1;"><path class="path" d="M3118.5358146067415,225L2988.203125,250L2988.203125,275" marker-end="url(#arrowhead1199)" style="fill:none"></path><defs><marker id="arrowhead1199" viewBox="0 0 10 10" refX="9" refY="5" markerUnits="strokeWidth" markerWidth="8" markerHeight="6" orient="auto"><path d="M 0 0 L 10 5 L 0 10 z" class="arrowheadPath" style="stroke-width: 1; stroke-dasharray: 1, 0;"></path></marker></defs></g><g class="edgePath" style="opacity: 1;"><path class="path" d="M3237.278353230337,225L3259.1796875,250L3259.1796875,275" marker-end="url(#arrowhead1200)" style="fill:none"></path><defs><marker id="arrowhead1200" viewBox="0 0 10 10" refX="9" refY="5" markerUnits="strokeWidth" markerWidth="8" markerHeight="6" orient="auto"><path d="M 0 0 L 10 5 L 0 10 z" class="arrowheadPath" style="stroke-width: 1; stroke-dasharray: 1, 0;"></path></marker></defs></g><g class="edgePath" style="opacity: 1;"><path class="path" d="M147.68723665730337,314L40.25,339L40.25,364" marker-end="url(#arrowhead1201)" style="fill:none"></path><defs><marker id="arrowhead1201" viewBox="0 0 10 10" refX="9" refY="5" markerUnits="strokeWidth" markerWidth="8" markerHeight="6" orient="auto"><path d="M 0 0 L 10 5 L 0 10 z" class="arrowheadPath" style="stroke-width: 1; stroke-dasharray: 1, 0;"></path></marker></defs></g><g class="edgePath" style="opacity: 1;"><path class="path" d="M223.54073033707866,314L213.3515625,339L213.3515625,364" marker-end="url(#arrowhead1202)" style="fill:none"></path><defs><marker id="arrowhead1202" viewBox="0 0 10 10" refX="9" refY="5" markerUnits="strokeWidth" markerWidth="8" markerHeight="6" orient="auto"><path d="M 0 0 L 10 5 L 0 10 z" class="arrowheadPath" style="stroke-width: 1; stroke-dasharray: 1, 0;"></path></marker></defs></g><g class="edgePath" style="opacity: 1;"><path class="path" d="M315.2893258426966,314L422.7265625,339L422.7265625,364" marker-end="url(#arrowhead1203)" style="fill:none"></path><defs><marker id="arrowhead1203" viewBox="0 0 10 10" refX="9" refY="5" markerUnits="strokeWidth" markerWidth="8" markerHeight="6" orient="auto"><path d="M 0 0 L 10 5 L 0 10 z" class="arrowheadPath" style="stroke-width: 1; stroke-dasharray: 1, 0;"></path></marker></defs></g><g class="edgePath" style="opacity: 1;"><path class="path" d="M587.8402387640449,314L571.5546875,339L571.5546875,364" marker-end="url(#arrowhead1204)" style="fill:none"></path><defs><marker id="arrowhead1204" viewBox="0 0 10 10" refX="9" refY="5" markerUnits="strokeWidth" markerWidth="8" markerHeight="6" orient="auto"><path d="M 0 0 L 10 5 L 0 10 z" class="arrowheadPath" style="stroke-width: 1; stroke-dasharray: 1, 0;"></path></marker></defs></g><g class="edgePath" style="opacity: 1;"><path class="path" d="M628.002501755618,314L663.20703125,339L855.875,378.6623267496702" marker-end="url(#arrowhead1205)" style="fill:none"></path><defs><marker id="arrowhead1205" viewBox="0 0 10 10" refX="9" refY="5" markerUnits="strokeWidth" markerWidth="8" markerHeight="6" orient="auto"><path d="M 0 0 L 10 5 L 0 10 z" class="arrowheadPath" style="stroke-width: 1; stroke-dasharray: 1, 0;"></path></marker></defs></g><g class="edgePath" style="opacity: 1;"><path class="path" d="M919.442810744382,314L967.44140625,339L1027.3913711376404,364" marker-end="url(#arrowhead1206)" style="fill:none"></path><defs><marker id="arrowhead1206" viewBox="0 0 10 10" refX="9" refY="5" markerUnits="strokeWidth" markerWidth="8" markerHeight="6" orient="auto"><path d="M 0 0 L 10 5 L 0 10 z" class="arrowheadPath" style="stroke-width: 1; stroke-dasharray: 1, 0;"></path></marker></defs></g><g class="edgePath" style="opacity: 1;"><path class="path" d="M1375.91015625,308.9165554553652L1229.48046875,339L1142.2174771769662,364" marker-end="url(#arrowhead1207)" style="fill:none"></path><defs><marker id="arrowhead1207" viewBox="0 0 10 10" refX="9" refY="5" markerUnits="strokeWidth" markerWidth="8" markerHeight="6" orient="auto"><path d="M 0 0 L 10 5 L 0 10 z" class="arrowheadPath" style="stroke-width: 1; stroke-dasharray: 1, 0;"></path></marker></defs></g><g class="edgePath" style="opacity: 1;"><path class="path" d="M1279.4226650280898,314L1365.015625,339L1365.015625,364" marker-end="url(#arrowhead1208)" style="fill:none"></path><defs><marker id="arrowhead1208" viewBox="0 0 10 10" refX="9" refY="5" markerUnits="strokeWidth" markerWidth="8" markerHeight="6" orient="auto"><path d="M 0 0 L 10 5 L 0 10 z" class="arrowheadPath" style="stroke-width: 1; stroke-dasharray: 1, 0;"></path></marker></defs></g><g class="edgePath" style="opacity: 1;"><path class="path" d="M1099.41015625,313.5017674089784L947.44140625,339L902.875,368.1363271162123" marker-end="url(#arrowhead1209)" style="fill:none"></path><defs><marker id="arrowhead1209" viewBox="0 0 10 10" refX="9" refY="5" markerUnits="strokeWidth" markerWidth="8" markerHeight="6" orient="auto"><path d="M 0 0 L 10 5 L 0 10 z" class="arrowheadPath" style="stroke-width: 1; stroke-dasharray: 1, 0;"></path></marker></defs></g><g class="edgePath" style="opacity: 1;"><path class="path" d="M1742.8515625,314L1742.8515625,339L1742.8515625,364" marker-end="url(#arrowhead1210)" style="fill:none"></path><defs><marker id="arrowhead1210" viewBox="0 0 10 10" refX="9" refY="5" markerUnits="strokeWidth" markerWidth="8" markerHeight="6" orient="auto"><path d="M 0 0 L 10 5 L 0 10 z" class="arrowheadPath" style="stroke-width: 1; stroke-dasharray: 1, 0;"></path></marker></defs></g><g class="edgePath" style="opacity: 1;"><path class="path" d="M2081.578125,314L2081.578125,339L2081.578125,364" marker-end="url(#arrowhead1211)" style="fill:none"></path><defs><marker id="arrowhead1211" viewBox="0 0 10 10" refX="9" refY="5" markerUnits="strokeWidth" markerWidth="8" markerHeight="6" orient="auto"><path d="M 0 0 L 10 5 L 0 10 z" class="arrowheadPath" style="stroke-width: 1; stroke-dasharray: 1, 0;"></path></marker></defs></g><g class="edgePath" style="opacity: 1;"><path class="path" d="M2420.0234375,314L2420.0234375,339L2420.0234375,364" marker-end="url(#arrowhead1212)" style="fill:none"></path><defs><marker id="arrowhead1212" viewBox="0 0 10 10" refX="9" refY="5" markerUnits="strokeWidth" markerWidth="8" markerHeight="6" orient="auto"><path d="M 0 0 L 10 5 L 0 10 z" class="arrowheadPath" style="stroke-width: 1; stroke-dasharray: 1, 0;"></path></marker></defs></g><g class="edgePath" style="opacity: 1;"><path class="path" d="M2721.96875,314L2721.96875,339L2721.96875,364" marker-end="url(#arrowhead1213)" style="fill:none"></path><defs><marker id="arrowhead1213" viewBox="0 0 10 10" refX="9" refY="5" markerUnits="strokeWidth" markerWidth="8" markerHeight="6" orient="auto"><path d="M 0 0 L 10 5 L 0 10 z" class="arrowheadPath" style="stroke-width: 1; stroke-dasharray: 1, 0;"></path></marker></defs></g><g class="edgePath" style="opacity: 1;"><path class="path" d="M2988.203125,314L2988.203125,339L3129.6015625,366.1225963966998" marker-end="url(#arrowhead1214)" style="fill:none"></path><defs><marker id="arrowhead1214" viewBox="0 0 10 10" refX="9" refY="5" markerUnits="strokeWidth" markerWidth="8" markerHeight="6" orient="auto"><path d="M 0 0 L 10 5 L 0 10 z" class="arrowheadPath" style="stroke-width: 1; stroke-dasharray: 1, 0;"></path></marker></defs></g><g class="edgePath" style="opacity: 1;"><path class="path" d="M3259.1796875,314L3259.1796875,339L3237.278353230337,364" marker-end="url(#arrowhead1215)" style="fill:none"></path><defs><marker id="arrowhead1215" viewBox="0 0 10 10" refX="9" refY="5" markerUnits="strokeWidth" markerWidth="8" markerHeight="6" orient="auto"><path d="M 0 0 L 10 5 L 0 10 z" class="arrowheadPath" style="stroke-width: 1; stroke-dasharray: 1, 0;"></path></marker></defs></g></g><g class="edgeLabels"><g class="edgeLabel" transform="" style="opacity: 1;"><g transform="translate(0,0)" class="label"><foreignObject width="0" height="0"><div xmlns="http://www.w3.org/1999/xhtml" style="display: inline-block; white-space: nowrap;"><span class="edgeLabel"></span></div></foreignObject></g></g><g class="edgeLabel" transform="" style="opacity: 1;"><g transform="translate(0,0)" class="label"><foreignObject width="0" height="0"><div xmlns="http://www.w3.org/1999/xhtml" style="display: inline-block; white-space: nowrap;"><span class="edgeLabel"></span></div></foreignObject></g></g><g class="edgeLabel" transform="" style="opacity: 1;"><g transform="translate(0,0)" class="label"><foreignObject width="0" height="0"><div xmlns="http://www.w3.org/1999/xhtml" style="display: inline-block; white-space: nowrap;"><span class="edgeLabel"></span></div></foreignObject></g></g><g class="edgeLabel" transform="" style="opacity: 1;"><g transform="translate(0,0)" class="label"><foreignObject width="0" height="0"><div xmlns="http://www.w3.org/1999/xhtml" style="display: inline-block; white-space: nowrap;"><span class="edgeLabel"></span></div></foreignObject></g></g><g class="edgeLabel" transform="" style="opacity: 1;"><g transform="translate(0,0)" class="label"><foreignObject width="0" height="0"><div xmlns="http://www.w3.org/1999/xhtml" style="display: inline-block; white-space: nowrap;"><span class="edgeLabel"></span></div></foreignObject></g></g><g class="edgeLabel" transform="" style="opacity: 1;"><g transform="translate(0,0)" class="label"><foreignObject width="0" height="0"><div xmlns="http://www.w3.org/1999/xhtml" style="display: inline-block; white-space: nowrap;"><span class="edgeLabel"></span></div></foreignObject></g></g><g class="edgeLabel" transform="" style="opacity: 1;"><g transform="translate(0,0)" class="label"><foreignObject width="0" height="0"><div xmlns="http://www.w3.org/1999/xhtml" style="display: inline-block; white-space: nowrap;"><span class="edgeLabel"></span></div></foreignObject></g></g><g class="edgeLabel" transform="" style="opacity: 1;"><g transform="translate(0,0)" class="label"><foreignObject width="0" height="0"><div xmlns="http://www.w3.org/1999/xhtml" style="display: inline-block; white-space: nowrap;"><span class="edgeLabel"></span></div></foreignObject></g></g><g class="edgeLabel" transform="" style="opacity: 1;"><g transform="translate(0,0)" class="label"><foreignObject width="0" height="0"><div xmlns="http://www.w3.org/1999/xhtml" style="display: inline-block; white-space: nowrap;"><span class="edgeLabel"></span></div></foreignObject></g></g><g class="edgeLabel" transform="" style="opacity: 1;"><g transform="translate(0,0)" class="label"><foreignObject width="0" height="0"><div xmlns="http://www.w3.org/1999/xhtml" style="display: inline-block; white-space: nowrap;"><span class="edgeLabel"></span></div></foreignObject></g></g><g class="edgeLabel" transform="" style="opacity: 1;"><g transform="translate(0,0)" class="label"><foreignObject width="0" height="0"><div xmlns="http://www.w3.org/1999/xhtml" style="display: inline-block; white-space: nowrap;"><span class="edgeLabel"></span></div></foreignObject></g></g><g class="edgeLabel" transform="" style="opacity: 1;"><g transform="translate(0,0)" class="label"><foreignObject width="0" height="0"><div xmlns="http://www.w3.org/1999/xhtml" style="display: inline-block; white-space: nowrap;"><span class="edgeLabel"></span></div></foreignObject></g></g><g class="edgeLabel" transform="" style="opacity: 1;"><g transform="translate(0,0)" class="label"><foreignObject width="0" height="0"><div xmlns="http://www.w3.org/1999/xhtml" style="display: inline-block; white-space: nowrap;"><span class="edgeLabel"></span></div></foreignObject></g></g><g class="edgeLabel" transform="" style="opacity: 1;"><g transform="translate(0,0)" class="label"><foreignObject width="0" height="0"><div xmlns="http://www.w3.org/1999/xhtml" style="display: inline-block; white-space: nowrap;"><span class="edgeLabel"></span></div></foreignObject></g></g><g class="edgeLabel" transform="" style="opacity: 1;"><g transform="translate(0,0)" class="label"><foreignObject width="0" height="0"><div xmlns="http://www.w3.org/1999/xhtml" style="display: inline-block; white-space: nowrap;"><span class="edgeLabel"></span></div></foreignObject></g></g><g class="edgeLabel" transform="" style="opacity: 1;"><g transform="translate(0,0)" class="label"><foreignObject width="0" height="0"><div xmlns="http://www.w3.org/1999/xhtml" style="display: inline-block; white-space: nowrap;"><span class="edgeLabel"></span></div></foreignObject></g></g><g class="edgeLabel" transform="" style="opacity: 1;"><g transform="translate(0,0)" class="label"><foreignObject width="0" height="0"><div xmlns="http://www.w3.org/1999/xhtml" style="display: inline-block; white-space: nowrap;"><span class="edgeLabel"></span></div></foreignObject></g></g><g class="edgeLabel" transform="" style="opacity: 1;"><g transform="translate(0,0)" class="label"><foreignObject width="0" height="0"><div xmlns="http://www.w3.org/1999/xhtml" style="display: inline-block; white-space: nowrap;"><span class="edgeLabel"></span></div></foreignObject></g></g><g class="edgeLabel" transform="" style="opacity: 1;"><g transform="translate(0,0)" class="label"><foreignObject width="0" height="0"><div xmlns="http://www.w3.org/1999/xhtml" style="display: inline-block; white-space: nowrap;"><span class="edgeLabel"></span></div></foreignObject></g></g><g class="edgeLabel" transform="" style="opacity: 1;"><g transform="translate(0,0)" class="label"><foreignObject width="0" height="0"><div xmlns="http://www.w3.org/1999/xhtml" style="display: inline-block; white-space: nowrap;"><span class="edgeLabel"></span></div></foreignObject></g></g><g class="edgeLabel" transform="" style="opacity: 1;"><g transform="translate(0,0)" class="label"><foreignObject width="0" height="0"><div xmlns="http://www.w3.org/1999/xhtml" style="display: inline-block; white-space: nowrap;"><span class="edgeLabel"></span></div></foreignObject></g></g><g class="edgeLabel" transform="" style="opacity: 1;"><g transform="translate(0,0)" class="label"><foreignObject width="0" height="0"><div xmlns="http://www.w3.org/1999/xhtml" style="display: inline-block; white-space: nowrap;"><span class="edgeLabel"></span></div></foreignObject></g></g><g class="edgeLabel" transform="" style="opacity: 1;"><g transform="translate(0,0)" class="label"><foreignObject width="0" height="0"><div xmlns="http://www.w3.org/1999/xhtml" style="display: inline-block; white-space: nowrap;"><span class="edgeLabel"></span></div></foreignObject></g></g><g class="edgeLabel" transform="" style="opacity: 1;"><g transform="translate(0,0)" class="label"><foreignObject width="0" height="0"><div xmlns="http://www.w3.org/1999/xhtml" style="display: inline-block; white-space: nowrap;"><span class="edgeLabel"></span></div></foreignObject></g></g><g class="edgeLabel" transform="" style="opacity: 1;"><g transform="translate(0,0)" class="label"><foreignObject width="0" height="0"><div xmlns="http://www.w3.org/1999/xhtml" style="display: inline-block; white-space: nowrap;"><span class="edgeLabel"></span></div></foreignObject></g></g><g class="edgeLabel" transform="" style="opacity: 1;"><g transform="translate(0,0)" class="label"><foreignObject width="0" height="0"><div xmlns="http://www.w3.org/1999/xhtml" style="display: inline-block; white-space: nowrap;"><span class="edgeLabel"></span></div></foreignObject></g></g><g class="edgeLabel" transform="" style="opacity: 1;"><g transform="translate(0,0)" class="label"><foreignObject width="0" height="0"><div xmlns="http://www.w3.org/1999/xhtml" style="display: inline-block; white-space: nowrap;"><span class="edgeLabel"></span></div></foreignObject></g></g><g class="edgeLabel" transform="" style="opacity: 1;"><g transform="translate(0,0)" class="label"><foreignObject width="0" height="0"><div xmlns="http://www.w3.org/1999/xhtml" style="display: inline-block; white-space: nowrap;"><span class="edgeLabel"></span></div></foreignObject></g></g><g class="edgeLabel" transform="" style="opacity: 1;"><g transform="translate(0,0)" class="label"><foreignObject width="0" height="0"><div xmlns="http://www.w3.org/1999/xhtml" style="display: inline-block; white-space: nowrap;"><span class="edgeLabel"></span></div></foreignObject></g></g><g class="edgeLabel" transform="" style="opacity: 1;"><g transform="translate(0,0)" class="label"><foreignObject width="0" height="0"><div xmlns="http://www.w3.org/1999/xhtml" style="display: inline-block; white-space: nowrap;"><span class="edgeLabel"></span></div></foreignObject></g></g><g class="edgeLabel" transform="" style="opacity: 1;"><g transform="translate(0,0)" class="label"><foreignObject width="0" height="0"><div xmlns="http://www.w3.org/1999/xhtml" style="display: inline-block; white-space: nowrap;"><span class="edgeLabel"></span></div></foreignObject></g></g><g class="edgeLabel" transform="" style="opacity: 1;"><g transform="translate(0,0)" class="label"><foreignObject width="0" height="0"><div xmlns="http://www.w3.org/1999/xhtml" style="display: inline-block; white-space: nowrap;"><span class="edgeLabel"></span></div></foreignObject></g></g><g class="edgeLabel" transform="" style="opacity: 1;"><g transform="translate(0,0)" class="label"><foreignObject width="0" height="0"><div xmlns="http://www.w3.org/1999/xhtml" style="display: inline-block; white-space: nowrap;"><span class="edgeLabel"></span></div></foreignObject></g></g><g class="edgeLabel" transform="" style="opacity: 1;"><g transform="translate(0,0)" class="label"><foreignObject width="0" height="0"><div xmlns="http://www.w3.org/1999/xhtml" style="display: inline-block; white-space: nowrap;"><span class="edgeLabel"></span></div></foreignObject></g></g><g class="edgeLabel" transform="" style="opacity: 1;"><g transform="translate(0,0)" class="label"><foreignObject width="0" height="0"><div xmlns="http://www.w3.org/1999/xhtml" style="display: inline-block; white-space: nowrap;"><span class="edgeLabel"></span></div></foreignObject></g></g><g class="edgeLabel" transform="" style="opacity: 1;"><g transform="translate(0,0)" class="label"><foreignObject width="0" height="0"><div xmlns="http://www.w3.org/1999/xhtml" style="display: inline-block; white-space: nowrap;"><span class="edgeLabel"></span></div></foreignObject></g></g><g class="edgeLabel" transform="" style="opacity: 1;"><g transform="translate(0,0)" class="label"><foreignObject width="0" height="0"><div xmlns="http://www.w3.org/1999/xhtml" style="display: inline-block; white-space: nowrap;"><span class="edgeLabel"></span></div></foreignObject></g></g><g class="edgeLabel" transform="" style="opacity: 1;"><g transform="translate(0,0)" class="label"><foreignObject width="0" height="0"><div xmlns="http://www.w3.org/1999/xhtml" style="display: inline-block; white-space: nowrap;"><span class="edgeLabel"></span></div></foreignObject></g></g><g class="edgeLabel" transform="" style="opacity: 1;"><g transform="translate(0,0)" class="label"><foreignObject width="0" height="0"><div xmlns="http://www.w3.org/1999/xhtml" style="display: inline-block; white-space: nowrap;"><span class="edgeLabel"></span></div></foreignObject></g></g><g class="edgeLabel" transform="" style="opacity: 1;"><g transform="translate(0,0)" class="label"><foreignObject width="0" height="0"><div xmlns="http://www.w3.org/1999/xhtml" style="display: inline-block; white-space: nowrap;"><span class="edgeLabel"></span></div></foreignObject></g></g><g class="edgeLabel" transform="" style="opacity: 1;"><g transform="translate(0,0)" class="label"><foreignObject width="0" height="0"><div xmlns="http://www.w3.org/1999/xhtml" style="display: inline-block; white-space: nowrap;"><span class="edgeLabel"></span></div></foreignObject></g></g></g><g class="nodes"><g class="node default" id="A" transform="translate(1873.00390625,27.5)" style="opacity: 1;"><rect rx="5" ry="5" x="-66.7421875" y="-19.5" width="133.484375" height="39" class="label-container"></rect><g class="label" transform="translate(0,0)"><g transform="translate(-56.7421875,-9.5)"><foreignObject width="113.484375" height="19"><div xmlns="http://www.w3.org/1999/xhtml" style="display: inline-block; white-space: nowrap;">Gross Retention</div></foreignObject></g></g></g><g class="node default" id="B" transform="translate(407.328125,116.5)" style="opacity: 1;"><rect rx="5" ry="5" x="-53.8046875" y="-19.5" width="107.609375" height="39" class="label-container"></rect><g class="label" transform="translate(0,0)"><g transform="translate(-43.8046875,-9.5)"><foreignObject width="87.609375" height="19"><div xmlns="http://www.w3.org/1999/xhtml" style="display: inline-block; white-space: nowrap;">Engagement</div></foreignObject></g></g></g><g class="node default" id="C" transform="translate(1315.984375,116.5)" style="opacity: 1;"><rect rx="5" ry="5" x="-31.0078125" y="-19.5" width="62.015625" height="39" class="label-container"></rect><g class="label" transform="translate(0,0)"><g transform="translate(-21.0078125,-9.5)"><foreignObject width="42.015625" height="19"><div xmlns="http://www.w3.org/1999/xhtml" style="display: inline-block; white-space: nowrap;">Churn</div></foreignObject></g></g></g><g class="node default" id="D" transform="translate(2420.0234375,116.5)" style="opacity: 1;"><rect rx="5" ry="5" x="-40.2734375" y="-19.5" width="80.546875" height="39" class="label-container"></rect><g class="label" transform="translate(0,0)"><g transform="translate(-30.2734375,-9.5)"><foreignObject width="60.546875" height="19"><div xmlns="http://www.w3.org/1999/xhtml" style="display: inline-block; white-space: nowrap;">Renewal</div></foreignObject></g></g></g><g class="node default" id="E" transform="translate(3220.1953125,116.5)" style="opacity: 1;"><rect rx="5" ry="5" x="-55.2890625" y="-19.5" width="110.578125" height="39" class="label-container"></rect><g class="label" transform="translate(0,0)"><g transform="translate(-45.2890625,-9.5)"><foreignObject width="90.578125" height="19"><div xmlns="http://www.w3.org/1999/xhtml" style="display: inline-block; white-space: nowrap;">Resurrection</div></foreignObject></g></g></g><g class="node default" id="F" transform="translate(231.48828125,205.5)" style="opacity: 1;"><rect rx="5" ry="5" x="-64.9609375" y="-19.5" width="129.921875" height="39" class="label-container"></rect><g class="label" transform="translate(0,0)"><g transform="translate(-54.9609375,-9.5)"><foreignObject width="109.921875" height="19"><div xmlns="http://www.w3.org/1999/xhtml" style="display: inline-block; white-space: nowrap;">Account Health</div></foreignObject></g></g></g><g class="node default" id="G" transform="translate(600.54296875,205.5)" style="opacity: 1;"><rect rx="5" ry="5" x="-67.75" y="-19.5" width="135.5" height="39" class="label-container"></rect><g class="label" transform="translate(0,0)"><g transform="translate(-57.75,-9.5)"><foreignObject width="115.5" height="19"><div xmlns="http://www.w3.org/1999/xhtml" style="display: inline-block; white-space: nowrap;">User Engagment</div></foreignObject></g></g></g><g class="node default" id="H" transform="translate(995.328125,205.5)" style="opacity: 1;"><rect rx="5" ry="5" x="-65.3984375" y="-19.5" width="130.796875" height="39" class="label-container"></rect><g class="label" transform="translate(0,0)"><g transform="translate(-55.3984375,-9.5)"><foreignObject width="110.796875" height="19"><div xmlns="http://www.w3.org/1999/xhtml" style="display: inline-block; white-space: nowrap;">Seat Utilization</div></foreignObject></g></g></g><g class="node default" id="I" transform="translate(1325.984375,205.5)" style="opacity: 1;"><rect rx="5" ry="5" x="-84.5625" y="-19.5" width="169.125" height="39" class="label-container"></rect><g class="label" transform="translate(0,0)"><g transform="translate(-74.5625,-9.5)"><foreignObject width="149.125" height="19"><div xmlns="http://www.w3.org/1999/xhtml" style="display: inline-block; white-space: nowrap;">Package Downgrades</div></foreignObject></g></g></g><g class="node default" id="J" transform="translate(1779.80859375,205.5)" style="opacity: 1;"><rect rx="5" ry="5" x="-129.484375" y="-19.5" width="258.96875" height="39" class="label-container"></rect><g class="label" transform="translate(0,0)"><g transform="translate(-119.484375,-9.5)"><foreignObject width="238.96875" height="19"><div xmlns="http://www.w3.org/1999/xhtml" style="display: inline-block; white-space: nowrap;">% of accounts that have canceled</div></foreignObject></g></g></g><g class="node default" id="K" transform="translate(2151.76953125,205.5)" style="opacity: 1;"><rect rx="5" ry="5" x="-105.328125" y="-19.5" width="210.65625" height="39" class="label-container"></rect><g class="label" transform="translate(0,0)"><g transform="translate(-95.328125,-9.5)"><foreignObject width="190.65625" height="19"><div xmlns="http://www.w3.org/1999/xhtml" style="display: inline-block; white-space: nowrap;">Subscription Renewal Rate</div></foreignObject></g></g></g><g class="node default" id="L" transform="translate(2420.0234375,205.5)" style="opacity: 1;"><rect rx="5" ry="5" x="-42.734375" y="-19.5" width="85.46875" height="39" class="label-container"></rect><g class="label" transform="translate(0,0)"><g transform="translate(-32.734375,-9.5)"><foreignObject width="65.46875" height="19"><div xmlns="http://www.w3.org/1999/xhtml" style="display: inline-block; white-space: nowrap;">Seat Link</div></foreignObject></g></g></g><g class="node default" id="M" transform="translate(2721.96875,205.5)" style="opacity: 1;"><rect rx="5" ry="5" x="-55.1640625" y="-19.5" width="110.328125" height="39" class="label-container"></rect><g class="label" transform="translate(0,0)"><g transform="translate(-45.1640625,-9.5)"><foreignObject width="90.328125" height="19"><div xmlns="http://www.w3.org/1999/xhtml" style="display: inline-block; white-space: nowrap;">License Sync</div></foreignObject></g></g></g><g class="node default" id="N" transform="translate(3220.1953125,205.5)" style="opacity: 1;"><rect rx="5" ry="5" x="-105.6171875" y="-19.5" width="211.234375" height="39" class="label-container"></rect><g class="label" transform="translate(0,0)"><g transform="translate(-95.6171875,-9.5)"><foreignObject width="191.234375" height="19"><div xmlns="http://www.w3.org/1999/xhtml" style="display: inline-block; white-space: nowrap;">Re-engagement campaigns</div></foreignObject></g></g></g><g class="node default" id="O" transform="translate(231.48828125,294.5)" style="opacity: 1;"><rect rx="5" ry="5" x="-92.75" y="-19.5" width="185.5" height="39" class="label-container"></rect><g class="label" transform="translate(0,0)"><g transform="translate(-82.75,-9.5)"><foreignObject width="165.5" height="19"><div xmlns="http://www.w3.org/1999/xhtml" style="display: inline-block; white-space: nowrap;">Account MAU retention</div></foreignObject></g></g></g><g class="node default" id="P" transform="translate(600.54296875,294.5)" style="opacity: 1;"><rect rx="5" ry="5" x="-64.0546875" y="-19.5" width="128.109375" height="39" class="label-container"></rect><g class="label" transform="translate(0,0)"><g transform="translate(-54.0546875,-9.5)"><foreignObject width="108.109375" height="19"><div xmlns="http://www.w3.org/1999/xhtml" style="display: inline-block; white-space: nowrap;">Stage Adoption</div></foreignObject></g></g></g><g class="node default" id="Q" transform="translate(882.00390625,294.5)" style="opacity: 1;"><rect rx="5" ry="5" x="-167.40625" y="-19.5" width="334.8125" height="39" class="label-container"></rect><g class="label" transform="translate(0,0)"><g transform="translate(-157.40625,-9.5)"><foreignObject width="314.8125" height="19"><div xmlns="http://www.w3.org/1999/xhtml" style="display: inline-block; white-space: nowrap;"># of accounts over their licensed seat count</div></foreignObject></g></g></g><g class="node default" id="R" transform="translate(1446.08203125,294.5)" style="opacity: 1;"><rect rx="5" ry="5" x="-70.171875" y="-19.5" width="140.34375" height="39" class="label-container"></rect><g class="label" transform="translate(0,0)"><g transform="translate(-60.171875,-9.5)"><foreignObject width="120.34375" height="19"><div xmlns="http://www.w3.org/1999/xhtml" style="display: inline-block; white-space: nowrap;">Seat growth rate</div></foreignObject></g></g></g><g class="node default" id="S" transform="translate(1212.66015625,294.5)" style="opacity: 1;"><rect rx="5" ry="5" x="-113.25" y="-19.5" width="226.5" height="39" class="label-container"></rect><g class="label" transform="translate(0,0)"><g transform="translate(-103.25,-9.5)"><foreignObject width="206.5" height="19"><div xmlns="http://www.w3.org/1999/xhtml" style="display: inline-block; white-space: nowrap;">Usage of Tier Specific Stages</div></foreignObject></g></g></g><g class="node default" id="T" transform="translate(1742.8515625,294.5)" style="opacity: 1;"><rect rx="5" ry="5" x="-63.2734375" y="-19.5" width="126.546875" height="39" class="label-container"></rect><g class="label" transform="translate(0,0)"><g transform="translate(-53.2734375,-9.5)"><foreignObject width="106.546875" height="19"><div xmlns="http://www.w3.org/1999/xhtml" style="display: inline-block; white-space: nowrap;">Cancel reasons</div></foreignObject></g></g></g><g class="node default" id="U" transform="translate(2081.578125,294.5)" style="opacity: 1;"><rect rx="5" ry="5" x="-150.6328125" y="-19.5" width="301.265625" height="39" class="label-container"></rect><g class="label" transform="translate(0,0)"><g transform="translate(-140.6328125,-9.5)"><foreignObject width="281.265625" height="19"><div xmlns="http://www.w3.org/1999/xhtml" style="display: inline-block; white-space: nowrap;">% of accounts with auto renew enabled</div></foreignObject></g></g></g><g class="node default" id="V" transform="translate(2420.0234375,294.5)" style="opacity: 1;"><rect rx="5" ry="5" x="-137.8125" y="-19.5" width="275.625" height="39" class="label-container"></rect><g class="label" transform="translate(0,0)"><g transform="translate(-127.8125,-9.5)"><foreignObject width="255.625" height="19"><div xmlns="http://www.w3.org/1999/xhtml" style="display: inline-block; white-space: nowrap;">% of accounts that are sending data</div></foreignObject></g></g></g><g class="node default" id="W" transform="translate(2721.96875,294.5)" style="opacity: 1;"><rect rx="5" ry="5" x="-114.1328125" y="-19.5" width="228.265625" height="39" class="label-container"></rect><g class="label" transform="translate(0,0)"><g transform="translate(-104.1328125,-9.5)"><foreignObject width="208.265625" height="19"><div xmlns="http://www.w3.org/1999/xhtml" style="display: inline-block; white-space: nowrap;">% of accounts that are linked</div></foreignObject></g></g></g><g class="node default" id="X" transform="translate(2988.203125,294.5)" style="opacity: 1;"><rect rx="5" ry="5" x="-102.1015625" y="-19.5" width="204.203125" height="39" class="label-container"></rect><g class="label" transform="translate(0,0)"><g transform="translate(-92.1015625,-9.5)"><foreignObject width="184.203125" height="19"><div xmlns="http://www.w3.org/1999/xhtml" style="display: inline-block; white-space: nowrap;">Reactivating old accounts</div></foreignObject></g></g></g><g class="node default" id="Y" transform="translate(3259.1796875,294.5)" style="opacity: 1;"><rect rx="5" ry="5" x="-118.875" y="-19.5" width="237.75" height="39" class="label-container"></rect><g class="label" transform="translate(0,0)"><g transform="translate(-108.875,-9.5)"><foreignObject width="217.75" height="19"><div xmlns="http://www.w3.org/1999/xhtml" style="display: inline-block; white-space: nowrap;">Customers responding to Sales</div></foreignObject></g></g></g><g class="node default" id="Z" transform="translate(40.25,383.5)" style="opacity: 1;"><rect rx="5" ry="5" x="-32.25" y="-19.5" width="64.5" height="39" class="label-container"></rect><g class="label" transform="translate(0,0)"><g transform="translate(-22.25,-9.5)"><foreignObject width="44.5" height="19"><div xmlns="http://www.w3.org/1999/xhtml" style="display: inline-block; white-space: nowrap;">Logins</div></foreignObject></g></g></g><g class="node default" id="AA" transform="translate(213.3515625,383.5)" style="opacity: 1;"><rect rx="5" ry="5" x="-90.8515625" y="-19.5" width="181.703125" height="39" class="label-container"></rect><g class="label" transform="translate(0,0)"><g transform="translate(-80.8515625,-9.5)"><foreignObject width="161.703125" height="19"><div xmlns="http://www.w3.org/1999/xhtml" style="display: inline-block; white-space: nowrap;">Interaction with issues</div></foreignObject></g></g></g><g class="node default" id="AB" transform="translate(422.7265625,383.5)" style="opacity: 1;"><rect rx="5" ry="5" x="-68.5234375" y="-19.5" width="137.046875" height="39" class="label-container"></rect><g class="label" transform="translate(0,0)"><g transform="translate(-58.5234375,-9.5)"><foreignObject width="117.046875" height="19"><div xmlns="http://www.w3.org/1999/xhtml" style="display: inline-block; white-space: nowrap;">Weekly commits</div></foreignObject></g></g></g><g class="node default" id="AC" transform="translate(571.5546875,383.5)" style="opacity: 1;"><rect rx="5" ry="5" x="-30.3046875" y="-19.5" width="60.609375" height="39" class="label-container"></rect><g class="label" transform="translate(0,0)"><g transform="translate(-20.3046875,-9.5)"><foreignObject width="40.609375" height="19"><div xmlns="http://www.w3.org/1999/xhtml" style="display: inline-block; white-space: nowrap;">AMAU</div></foreignObject></g></g></g><g class="node default" id="AD" transform="translate(879.375,383.5)" style="opacity: 1;"><rect rx="5" ry="5" x="-23.5" y="-19.5" width="47" height="39" class="label-container"></rect><g class="label" transform="translate(0,0)"><g transform="translate(-13.5,-9.5)"><foreignObject width="27" height="19"><div xmlns="http://www.w3.org/1999/xhtml" style="display: inline-block; white-space: nowrap;">SPU</div></foreignObject></g></g></g><g class="node default" id="AE" transform="translate(1074.15234375,383.5)" style="opacity: 1;"><rect rx="5" ry="5" x="-82.6328125" y="-19.5" width="165.265625" height="39" class="label-container"></rect><g class="label" transform="translate(0,0)"><g transform="translate(-72.6328125,-9.5)"><foreignObject width="145.265625" height="19"><div xmlns="http://www.w3.org/1999/xhtml" style="display: inline-block; white-space: nowrap;">Admins adding users</div></foreignObject></g></g></g><g class="node default" id="AF" transform="translate(1365.015625,383.5)" style="opacity: 1;"><rect rx="5" ry="5" x="-118.4375" y="-19.5" width="236.875" height="39" class="label-container"></rect><g class="label" transform="translate(0,0)"><g transform="translate(-108.4375,-9.5)"><foreignObject width="216.875" height="19"><div xmlns="http://www.w3.org/1999/xhtml" style="display: inline-block; white-space: nowrap;">AMAU of Tier Specifc Features</div></foreignObject></g></g></g><g class="node default" id="AG" transform="translate(1742.8515625,383.5)" style="opacity: 1;"><rect rx="5" ry="5" x="-170.3671875" y="-19.5" width="340.734375" height="39" class="label-container"></rect><g class="label" transform="translate(0,0)"><g transform="translate(-160.3671875,-9.5)"><foreignObject width="320.734375" height="19"><div xmlns="http://www.w3.org/1999/xhtml" style="display: inline-block; white-space: nowrap;">Subscriptions App logins without a transaction</div></foreignObject></g></g></g><g class="node default" id="AH" transform="translate(2081.578125,383.5)" style="opacity: 1;"><rect rx="5" ry="5" x="-118.359375" y="-19.5" width="236.71875" height="39" class="label-container"></rect><g class="label" transform="translate(0,0)"><g transform="translate(-108.359375,-9.5)"><foreignObject width="216.71875" height="19"><div xmlns="http://www.w3.org/1999/xhtml" style="display: inline-block; white-space: nowrap;">Renewal mailings engagement</div></foreignObject></g></g></g><g class="node default" id="AI" transform="translate(2420.0234375,383.5)" style="opacity: 1;"><rect rx="5" ry="5" x="-141.9453125" y="-19.5" width="283.890625" height="39" class="label-container"></rect><g class="label" transform="translate(0,0)"><g transform="translate(-131.9453125,-9.5)"><foreignObject width="263.890625" height="19"><div xmlns="http://www.w3.org/1999/xhtml" style="display: inline-block; white-space: nowrap;">Changing toggle, blocking at firewall</div></foreignObject></g></g></g><g class="node default" id="AJ" transform="translate(2721.96875,383.5)" style="opacity: 1;"><rect rx="5" ry="5" x="-76.5703125" y="-19.5" width="153.140625" height="39" class="label-container"></rect><g class="label" transform="translate(0,0)"><g transform="translate(-66.5703125,-9.5)"><foreignObject width="133.140625" height="19"><div xmlns="http://www.w3.org/1999/xhtml" style="display: inline-block; white-space: nowrap;">License sync setup</div></foreignObject></g></g></g><g class="node default" id="AK" transform="translate(3220.1953125,383.5)" style="opacity: 1;"><rect rx="5" ry="5" x="-90.59375" y="-19.5" width="181.1875" height="39" class="label-container"></rect><g class="label" transform="translate(0,0)"><g transform="translate(-80.59375,-9.5)"><foreignObject width="161.1875" height="19"><div xmlns="http://www.w3.org/1999/xhtml" style="display: inline-block; white-space: nowrap;">Email opens and clicks</div></foreignObject></g></g></g></g></g></g></svg>
